mul_tb.vcd
$date
	Thu Aug 19 11:21:57 2021
$end
$version
	Icarus Verilog
$end
$timescale
	1ns
$end
$scope module mul_tb $end
$var wire 32 ! a [31:0] $end
$var wire 32 " b [31:0] $end
$var wire 32 # data_o [31:0] $end
$var reg 11 $ addr [10:0] $end
$var reg 1 % clk $end
$var reg 1 & flag $end
$var integer 32 ' file1 [31:0] $end
$scope module m1 $end
$var wire 1 % clk $end
$var wire 1 ( en $end
$var wire 32 ) flout_a [31:0] $end
$var wire 32 * flout_b [31:0] $end
$var wire 1 + round_cfg $end
$var wire 1 , rst $end
$var wire 1 - s2 $end
$var wire 1 . s1 $end
$var wire 24 / man2 [23:0] $end
$var wire 24 0 man1 [23:0] $end
$var wire 8 1 exp2 [7:0] $end
$var wire 8 2 exp1 [7:0] $end
$var reg 32 3 flout_c [31:0] $end
$var reg 48 4 mul_out_p [47:0] $end
$var reg 1 5 n $end
$var reg 10 6 one_e_out [9:0] $end
$var reg 10 7 one_e_reg [9:0] $end
$var reg 48 8 one_m_out [47:0] $end
$var reg 48 9 one_m_reg [47:0] $end
$var reg 1 : one_s_out $end
$var reg 1 ; one_s_reg $end
$var reg 2 < overflow [1:0] $end
$var reg 10 = temp1 [9:0] $end
$var reg 10 > temp2 [9:0] $end
$var reg 10 ? temp3 [9:0] $end
$var reg 8 @ two_e_out [7:0] $end
$var reg 8 A two_e_reg [7:0] $end
$var reg 2 B two_f_out [1:0] $end
$var reg 2 C two_f_reg [1:0] $end
$var reg 23 D two_m_out [22:0] $end
$var reg 23 E two_m_reg [22:0] $end
$var reg 1 F two_s_reg $end
$upscope $end
$upscope $end
$enddefinitions $end
#0
$dumpvars
xF
bx E
bx D
bx C
b0 B
bx A
bx @
bx ?
b10 >
b10 =
bx <
x;
1:
bx 9
b10010100100110001000111110100001011110010010100 8
bx 7
b100 6
05
bx 4
bx 3
b10000010 2
b10000010 1
b100100100110001111011100 0
b100000011110110111000011 /
0.
1-
1,
0+
b11000001000000011110110111000011 *
b1000001000100100110001111011100 )
1(
b10000000000000000000000000000011 '
0&
0%
b0 $
bx #
b11000001000000011110110111000011 "
b1000001000100100110001111011100 !
$end
#5
b10000101 @
b101 ?
b101001001100010001111 D
b10010100100110001000111110100001011110010010100 4
b0 <
b10010100100110001000111110100001011110010010100 9
b100 7
1;
b0 C
0:
b11 6
b1 >
b100000000101010110101011100110011011110000011110 8
b100001111110111100011011 0
0-
b10000001 1
b111100011011000000111010 /
b1000001000001111110111100011011 !
b1000001000001111110111100011011 )
b1000000111100011011000000111010 "
b1000000111100011011000000111010 *
b1 $
1%
#10
b11000010100101001001100010001111 #
b11000010100101001001100010001111 3
b101010110101011 D
b10000000010101011010101110011001101111000001111 4
15
b101001001100010001111 E
b10000101 A
1F
b100000000101010110101011100110011011110000011110 9
b11 7
0;
0%
#15
b1000010100000000101010110101011 #
b1000010100000000101010110101011 3
b101010110101011 E
0F
b10 6
b1 =
1:
b100001100111001010110101010011111001111100101100 8
b10000001 2
b100100000110100001101010 0
1-
b111011100101011111111110 /
b1000000100100000110100001101010 !
b1000000100100000110100001101010 )
b11000000111011100101011111111110 "
b11000000111011100101011111111110 *
b10 $
1%
#20
b10000100 @
b100 ?
b1100111001010110101 D
b10000110011100101011010101001111100111110010110 4
b100001100111001010110101010011111001111100101100 9
b10 7
1;
0%
#25
b11000010000001100111001010110101 #
b11000010000001100111001010110101 3
b1100111001010110101 E
b10000100 A
1F
b100 6
b10 >
b10 =
b10100010101100110001101000010101010101110000100 8
1.
b10000010 2
b100001011111101101001101 0
0-
b10000010 1
b100110110110111110010100 /
b11000001000001011111101101001101 !
b11000001000001011111101101001101 )
b1000001000110110110111110010100 "
b1000001000110110110111110010100 *
b11 $
1%
#30
b10000101 @
b101 ?
b1000101011001100011010 D
b10100010101100110001101000010101010101110000100 4
05
b10100010101100110001101000010101010101110000100 9
b100 7
0%
#35
b11000010101000101011001100011010 #
b11000010101000101011001100011010 3
b1000101011001100011010 E
b10000101 A
0:
b0 6
b0 >
b0 =
b11110100101011110010110111011001110110111111001 8
b10000000 2
b101011111011100100111101 0
1-
b10000000 1
b101100100011101101101101 /
b11000000001011111011100100111101 !
b11000000001011111011100100111101 )
b11000000001100100011101101101101 "
b11000000001100100011101101101101 *
b100 $
1%
#40
b10000001 @
b1 ?
b11101001010111100101101 D
b11110100101011110010110111011001110110111111001 4
b11110100101011110010110111011001110110111111001 9
b0 7
0;
0%
#45
b1000000111101001010111100101101 #
b1000000111101001010111100101101 3
b11101001010111100101101 E
b10000001 A
0F
b1 6
b1 =
b10010010110001111001110011011010111100110000000 8
b10000001 2
b100000111011101111101111 0
b100011101001111010000000 /
b11000000100000111011101111101111 !
b11000000100000111011101111101111 )
b11000000000011101001111010000000 "
b11000000000011101001111010000000 *
b101 $
1%
#50
b10000010 @
b10 ?
b100101100011110011100 D
b10010010110001111001110011011010111100110000000 4
b10010010110001111001110011011010111100110000000 9
b1 7
0%
#55
b1000001000100101100011110011100 #
b1000001000100101100011110011100 3
b100101100011110011100 E
b10000010 A
b11 6
b1 >
b10 =
b100000011101101001110001111110111100100110111000 8
b10000010 2
b100011000001010110110100 0
b10000001 1
b111011010100110101100110 /
b11000001000011000001010110110100 !
b11000001000011000001010110110100 )
b11000000111011010100110101100110 "
b11000000111011010100110101100110 *
b110 $
1%
#60
b10000101 @
b101 ?
b11101101001110001 D
b10000001110110100111000111111011110010011011100 4
15
b100000011101101001110001111110111100100110111000 9
b11 7
0%
#65
b1000010100000011101101001110001 #
b1000010100000011101101001110001 3
b11101101001110001 E
b10000101 A
1:
b1 6
b0 >
b1 =
b100000111001111111000001100000101011011111001000 8
b10000001 2
b100100001001100111110110 0
0-
b10000000 1
b111010010000011001101100 /
b11000000100100001001100111110110 !
b11000000100100001001100111110110 )
b1000000011010010000011001101100 "
b1000000011010010000011001101100 *
b111 $
1%
#70
b10000011 @
b11 ?
b111001111111000001 D
b10000011100111111100000110000010101101111100100 4
b100000111001111111000001100000101011011111001000 9
b1 7
1;
0%
#75
b11000001100000111001111111000001 #
b11000001100000111001111111000001 3
b111001111111000001 E
b10000011 A
1F
0:
b1111111111 >
b10 =
b11100001100111110001100000010011100001110000100 8
0.
b10000010 2
b100110101100101100010110 0
b1111111 1
b101110101001000110000110 /
b1000001000110101100101100010110 !
b1000001000110101100101100010110 )
b111111101110101001000110000110 "
b111111101110101001000110000110 *
b1000 $
1%
#80
b10000010 @
b10 ?
b11000011001111100011000 D
b11100001100111110001100000010011100001110000100 4
05
b11100001100111110001100000010011100001110000100 9
0;
0%
#85
b1000001011000011001111100011000 #
b1000001011000011001111100011000 3
b11000011001111100011000 E
b10000010 A
0F
1:
b10111011001101100101100110000111110111000111010 8
1.
b100000101000111110101110 0
b101101111000101000101011 /
b11000001000000101000111110101110 !
b11000001000000101000111110101110 )
b111111101101111000101000101011 "
b111111101101111000101000101011 *
b1001 $
1%
#90
b1110110011011001011001 D
b10111011001101100101100110000111110111000111010 4
b10111011001101100101100110000111110111000111010 9
1;
0%
#95
b11000001001110110011011001011001 #
b11000001001110110011011001011001 3
b1110110011011001011001 E
1F
0:
b11 6
b1 >
b100011011010101111011001111010010100100001100101 8
b100100001000000111110001 0
1-
b10000001 1
b111110101111100110110101 /
b11000001000100001000000111110001 !
b11000001000100001000000111110001 )
b11000000111110101111100110110101 "
b11000000111110101111100110110101 *
b1010 $
1%
#100
b10000101 @
b101 ?
b11011010101111011001 D
b10001101101010111101100111101001010010000110010 4
15
b100011011010101111011001111010010100100001100101 9
b11 7
0;
0%
#105
b1000010100011011010101111011001 #
b1000010100011011010101111011001 3
b11011010101111011001 E
b10000101 A
0F
b0 6
b1111111111 >
b1 =
b101101110001101101011111011010010100001110101010 8
0.
b10000001 2
b111100110110111010000111 0
0-
b1111111 1
b110000001000111110000110 /
b1000000111100110110111010000111 !
b1000000111100110110111010000111 )
b111111110000001000111110000110 "
b111111110000001000111110000110 *
b1011 $
1%
#110
b10000010 @
b10 ?
b1101110001101101011111 D
b10110111000110110101111101101001010000111010101 4
b101101110001101101011111011010010100001110101010 9
b0 7
0%
#115
b1000001001101110001101101011111 #
b1000001001101110001101101011111 3
b1101110001101101011111 E
b10000010 A
1:
b10 6
b10 >
b0 =
b10110111110100010111000101011110110011011001010 8
1.
b10000000 2
b101100100001000101011110 0
b10000010 1
b100001000010001000101011 /
b11000000001100100001000101011110 !
b11000000001100100001000101011110 )
b1000001000001000010001000101011 "
b1000001000001000010001000101011 *
b1100 $
1%
#120
b10000011 @
b11 ?
b1101111101000101110001 D
b10110111110100010111000101011110110011011001010 4
05
b10110111110100010111000101011110110011011001010 9
b10 7
1;
0%
#125
b11000001101101111101000101110001 #
b11000001101101111101000101110001 3
b1101111101000101110001 E
b10000011 A
1F
0:
b100 6
b10 =
b10111010100011011001000100110101100011010011000 8
0.
b10000010 2
b100110001001111111111010 0
b100111000111010000111100 /
b1000001000110001001111111111010 !
b1000001000110001001111111111010 )
b1000001000111000111010000111100 "
b1000001000111000111010000111100 *
b1101 $
1%
#130
b10000101 @
b101 ?
b1110101000110110010001 D
b10111010100011011001000100110101100011010011000 4
b10111010100011011001000100110101100011010011000 9
b100 7
0;
0%
#135
b1000010101110101000110110010001 #
b1000010101110101000110110010001 3
b1110101000110110010001 E
b10000101 A
0F
1:
b10110100100011001001111000011011100110001100000 8
1.
b100110000100011111100000 0
b100101111100001011011101 /
b11000001000110000100011111100000 !
b11000001000110000100011111100000 )
b1000001000101111100001011011101 "
b1000001000101111100001011011101 *
b1110 $
1%
#140
b1101001000110010011110 D
b10110100100011001001111000011011100110001100000 4
b10110100100011001001111000011011100110001100000 9
1;
0%
#145
b11000010101101001000110010011110 #
b11000010101101001000110010011110 3
b1101001000110010011110 E
1F
b10 6
b1 >
b1 =
b111010110010111010000001100001101000101101100000 8
0.
b10000001 2
b111110100000111011100011 0
1-
b10000001 1
b111100001100010100100000 /
b1000000111110100000111011100011 !
b1000000111110100000111011100011 )
b11000000111100001100010100100000 "
b11000000111100001100010100100000 *
b1111 $
1%
#150
b10000100 @
b100 ?
b11010110010111010000001 D
b11101011001011101000000110000110100010110110000 4
15
b111010110010111010000001100001101000101101100000 9
b10 7
0%
#155
b11000010011010110010111010000001 #
b11000010011010110010111010000001 3
b11010110010111010000001 E
b10000100 A
b10110000101111010011000010101100100000101100000 8
1.
b100110001000000011110001 0
0-
b100101000101011101100000 /
b11000000100110001000000011110001 !
b11000000100110001000000011110001 )
b1000000100101000101011101100000 "
b1000000100101000101011101100000 *
b10000 $
1%
#160
b10000011 @
b11 ?
b1100001011110100110000 D
b10110000101111010011000010101100100000101100000 4
05
b10110000101111010011000010101100100000101100000 9
0%
#165
b11000001101100001011110100110000 #
b11000001101100001011110100110000 3
b1100001011110100110000 E
b10000011 A
b101011111001010001111101000000100100110000100011 8
b111011011110010111000101 0
b101111001111000011000111 /
b11000000111011011110010111000101 !
b11000000111011011110010111000101 )
b1000000101111001111000011000111 "
b1000000101111001111000011000111 *
b10001 $
1%
#170
b10000100 @
b100 ?
b1011111001010001111101 D
b10101111100101000111110100000010010011000010001 4
15
b101011111001010001111101000000100100110000100011 9
0%
#175
b11000010001011111001010001111101 #
b11000010001011111001010001111101 3
b1011111001010001111101 E
b10000100 A
b0 6
b1111111111 =
b100101000011011011110011101100111000001100001000 8
0.
b1111111 2
b101110110100010100001111 0
1-
b110010101001110001111000 /
b111111101110110100010100001111 !
b111111101110110100010100001111 )
b11000000110010101001110001111000 "
b11000000110010101001110001111000 *
b10010 $
1%
#180
b10000010 @
b10 ?
b101000011011011110011 D
b10010100001101101111001110110011100000110000100 4
b100101000011011011110011101100111000001100001000 9
b0 7
0%
#185
b11000001000101000011011011110011 #
b11000001000101000011011011110011 3
b101000011011011110011 E
b10000010 A
0:
b1111111111 6
b0 >
b100101110111011111111001111100111000111011101100 8
b110011100001101111001010 0
0-
b10000000 1
b101111000010001000111110 /
b111111110011100001101111001010 !
b111111110011100001101111001010 )
b1000000001111000010001000111110 "
b1000000001111000010001000111110 *
b10011 $
1%
#190
b10000001 @
b1 ?
b101110111011111111001 D
b10010111011101111111100111110011100011101110110 4
b100101110111011111111001111100111000111011101100 9
b1111111111 7
0;
0%
#195
b1000000100101110111011111111001 #
b1000000100101110111011111111001 3
b101110111011111111001 E
b10000001 A
0F
1:
b1 6
b1111111111 >
b10 =
b10010110001110100010101000100111000101010100000 8
1.
b10000010 2
b100010110101010111111100 0
b1111111 1
b100010100000000101011000 /
b11000001000010110101010111111100 !
b11000001000010110101010111111100 )
b111111100010100000000101011000 "
b111111100010100000000101011000 *
b10100 $
1%
#200
b10000010 @
b10 ?
b101100011101000101010 D
b10010110001110100010101000100111000101010100000 4
05
b10010110001110100010101000100111000101010100000 9
b1 7
1;
0%
#205
b11000001000101100011101000101010 #
b11000001000101100011101000101010 3
b101100011101000101010 E
b10000010 A
1F
0:
b0 6
b1 >
b1111111111 =
b101001101010010111101010110100110000011001101010 8
b1111111 2
b101101010001110000100010 0
1-
b10000001 1
b111010111000111011100101 /
b10111111101101010001110000100010 !
b10111111101101010001110000100010 )
b11000000111010111000111011100101 "
b11000000111010111000111011100101 *
b10101 $
1%
#210
b1001101010010111101010 D
b10100110101001011110101011010011000001100110101 4
15
b101001101010010111101010110100110000011001101010 9
b0 7
0;
0%
#215
b1000001001001101010010111101010 #
b1000001001001101010010111101010 3
b1001101010010111101010 E
0F
1:
b1 6
b0 >
b1 =
b100010010110010111000001011111111011011011110011 8
0.
b10000001 2
b100100111101110000000001 0
b10000000 1
b111011011110001011110011 /
b1000000100100111101110000000001 !
b1000000100100111101110000000001 )
b11000000011011011110001011110011 "
b11000000011011011110001011110011 *
b10110 $
1%
#220
b10000011 @
b11 ?
b10010110010111000001 D
b10001001011001011100000101111111101101101111001 4
b100010010110010111000001011111111011011011110011 9
b1 7
1;
0%
#225
b11000001100010010110010111000001 #
b11000001100010010110010111000001 3
b10010110010111000001 E
b10000011 A
1F
0:
b1111111101 6
b1111111110 >
b1111111111 =
b111011010100011001011011111010100100110011101111 8
b1111111 2
b111110110101100101001111 0
0-
b1111110 1
b111100011010101001100001 /
b111111111110110101100101001111 !
b111111111110110101100101001111 )
b111111011100011010101001100001 "
b111111011100011010101001100001 *
b10111 $
1%
#230
b1111111 @
b1111111111 ?
b11011010100011001011011 D
b11101101010001100101101111101010010011001110111 4
b111011010100011001011011111010100100110011101111 9
b1111111101 7
0;
0%
#235
b111111111011010100011001011011 #
b111111111011010100011001011011 3
b11011010100011001011011 E
b1111111 A
0F
1:
b1 6
b1111111111 >
b10 =
b10100111011111011011110010011101011011011011100 8
1.
b10000010 2
b100110010000100001001001 0
b1111111 1
b100011000001011111111100 /
b11000001000110010000100001001001 !
b11000001000110010000100001001001 )
b111111100011000001011111111100 "
b111111100011000001011111111100 *
b11000 $
1%
#240
b10000010 @
b10 ?
b1001110111110110111100 D
b10100111011111011011110010011101011011011011100 4
05
b10100111011111011011110010011101011011011011100 9
b1 7
1;
0%
#245
b11000001001001110111110110111100 #
b11000001001001110111110110111100 3
b1001110111110110111100 E
b10000010 A
1F
b10 6
b0 >
b10110011010011110100101110110100011110011111000 8
b100111101110111000001011 0
b10000000 1
b100100000110100111101000 /
b11000001000111101110111000001011 !
b11000001000111101110111000001011 )
b1000000000100000110100111101000 "
b1000000000100000110100111101000 *
b11001 $
1%
#250
b10000011 @
b11 ?
b1100110100111101001011 D
b10110011010011110100101110110100011110011111000 4
b10110011010011110100101110110100011110011111000 9
b10 7
0%
#255
b11000001101100110100111101001011 #
b11000001101100110100111101001011 3
b1100110100111101001011 E
b10000011 A
b1111111110 6
b1111111110 =
0:
b11001100011001000100101111100111000100011000000 8
b1111110 2
b101100000010110000001010 0
1-
b100101001000000011100000 /
b10111111001100000010110000001010 !
b10111111001100000010110000001010 )
b11000000000101001000000011100000 "
b11000000000101001000000011100000 *
b11010 $
1%
#260
b1111111 @
b1111111111 ?
b10011000110010001001011 D
b11001100011001000100101111100111000100011000000 4
b11001100011001000100101111100111000100011000000 9
b1111111110 7
0;
0%
#265
b111111110011000110010001001011 #
b111111110011000110010001001011 3
b10011000110010001001011 E
b1111111 A
0F
b1 >
b1111111101 =
b100001011111100101001110110011111001100000111100 8
b1111101 2
b101111011111110111001110 0
b10000001 1
b101101001000010100110010 /
b10111110101111011111110111001110 !
b10111110101111011111110111001110 )
b11000000101101001000010100110010 "
b11000000101101001000010100110010 *
b11011 $
1%
#270
b10000000 @
b0 ?
b1011111100101001110 D
b10000101111110010100111011001111100110000011110 4
15
b100001011111100101001110110011111001100000111100 9
0%
#275
b1000000000001011111100101001110 #
b1000000000001011111100101001110 3
b1011111100101001110 E
b10000000 A
b1 6
b0 =
1:
b100000000010010011110011111100110001001111011000 8
b10000000 2
b110001001011110011011000 0
0-
b101001101011111010100001 /
b11000000010001001011110011011000 !
b11000000010001001011110011011000 )
b1000000101001101011111010100001 "
b1000000101001101011111010100001 *
b11100 $
1%
#280
b10000011 @
b11 ?
b10010011110011 D
b10000000001001001111001111110011000100111101100 4
b100000000010010011110011111100110001001111011000 9
b1 7
1;
0%
#285
b11000001100000000010010011110011 #
b11000001100000000010010011110011 3
b10010011110011 E
b10000011 A
1F
0:
b1111111111 6
b0 >
b1111111111 =
b11001100001001010010001011011011101111101000010 8
b1111111 2
b100001101100101000010101 0
1-
b10000000 1
b110000011101110010111010 /
b10111111100001101100101000010101 !
b10111111100001101100101000010101 )
b11000000010000011101110010111010 "
b11000000010000011101110010111010 *
b11101 $
1%
#290
b10000000 @
b0 ?
b10011000010010100100010 D
b11001100001001010010001011011011101111101000010 4
05
b11001100001001010010001011011011101111101000010 9
b1111111111 7
0;
0%
#295
b1000000010011000010010100100010 #
b1000000010011000010010100100010 3
b10011000010010100100010 E
b10000000 A
0F
b1 6
b1 =
1:
b11011011001001000011100001001110111000110101010 8
b10000001 2
b100011111110001011001110 0
0-
b110000101111001001100011 /
b11000000100011111110001011001110 !
b11000000100011111110001011001110 )
b1000000010000101111001001100011 "
b1000000010000101111001001100011 *
b11110 $
1%
#300
b10000010 @
b10 ?
b10110110010010000111000 D
b11011011001001000011100001001110111000110101010 4
b11011011001001000011100001001110111000110101010 9
b1 7
1;
0%
#305
b11000001010110110010010000111000 #
b11000001010110110010010000111000 3
b10110110010010000111000 E
b10000010 A
1F
b10 6
b10 =
b100001100101111101010110101000101001111000000000 8
0.
b10000010 2
b100011100001001000101000 0
1-
b111100100010000011000000 /
b1000001000011100001001000101000 !
b1000001000011100001001000101000 )
b11000000011100100010000011000000 "
b11000000011100100010000011000000 *
b11111 $
1%
#310
b10000100 @
b100 ?
b1100101111101010110 D
b10000110010111110101011010100010100111100000000 4
15
b100001100101111101010110101000101001111000000000 9
b10 7
0%
#315
b11000010000001100101111101010110 #
b11000010000001100101111101010110 3
b1100101111101010110 E
b10000100 A
b0 6
b1111111111 >
b1 =
b11001000011110000100101110001010100001111110000 8
b10000001 2
b100101011111101101100111 0
b1111111 1
b101010110001011010010000 /
b1000000100101011111101101100111 !
b1000000100101011111101101100111 )
b10111111101010110001011010010000 "
b10111111101010110001011010010000 *
b100000 $
1%
#320
b10000001 @
b1 ?
b10010000111100001001011 D
b11001000011110000100101110001010100001111110000 4
05
b11001000011110000100101110001010100001111110000 9
b0 7
0%
#325
b11000000110010000111100001001011 #
b11000000110010000111100001001011 3
b10010000111100001001011 E
b10000001 A
b1 6
b1 >
b0 =
b10111111001110001011110011111011110010000110000 8
1.
b10000000 2
b100010011000111001010000 0
0-
b10000001 1
b101100011111000000000111 /
b11000000000010011000111001010000 !
b11000000000010011000111001010000 )
b1000000101100011111000000000111 "
b1000000101100011111000000000111 *
b100001 $
1%
#330
b10000010 @
b10 ?
b1111110011100010111100 D
b10111111001110001011110011111011110010000110000 4
b10111111001110001011110011111011110010000110000 9
b1 7
0%
#335
b11000001001111110011100010111100 #
b11000001001111110011100010111100 3
b1111110011100010111100 E
b10000010 A
0:
b0 >
b1 =
b11011010100100100011100100111111000000001010100 8
0.
b10000001 2
b101000110100011111111110 0
b10000000 1
b101010110101011111010110 /
b1000000101000110100011111111110 !
b1000000101000110100011111111110 )
b1000000001010110101011111010110 "
b1000000001010110101011111010110 *
b100010 $
1%
#340
b10110101001001000111001 D
b11011010100100100011100100111111000000001010100 4
b11011010100100100011100100111111000000001010100 9
0;
0%
#345
b1000001010110101001001000111001 #
b1000001010110101001001000111001 3
b10110101001001000111001 E
0F
1:
b10 6
b1 >
b100011000011100111110010010101111110001000110111 8
1.
b101010010010100110111111 0
b10000001 1
b110101000011010110001001 /
b11000000101010010010100110111111 !
b11000000101010010010100110111111 )
b1000000110101000011010110001001 "
b1000000110101000011010110001001 *
b100011 $
1%
#350
b10000100 @
b100 ?
b11000011100111110010 D
b10001100001110011111001001010111111000100011011 4
15
b100011000011100111110010010101111110001000110111 9
b10 7
1;
0%
#355
b11000010000011000011100111110010 #
b11000010000011000011100111110010 3
b11000011100111110010 E
b10000100 A
1F
0:
b0 6
b0 >
b0 =
b101011101011100101101100001010001100010010000100 8
0.
b10000000 2
b101100011000011111111101 0
b10000000 1
b111110111111001111010100 /
b1000000001100011000011111111101 !
b1000000001100011000011111111101 )
b1000000011110111111001111010100 "
b1000000011110111111001111010100 *
b100100 $
1%
#360
b10000010 @
b10 ?
b1011101011100101101100 D
b10101110101110010110110000101000110001001000010 4
b101011101011100101101100001010001100010010000100 9
b0 7
0;
0%
#365
b1000001001011101011100101101100 #
b1000001001011101011100101101100 3
b1011101011100101101100 E
b10000010 A
0F
b100101001110011001010110010000111111011110011110 8
b101010010110100101010101 0
b111000010000000100100110 /
b1000000001010010110100101010101 !
b1000000001010010110100101010101 )
b1000000011000010000000100100110 "
b1000000011000010000000100100110 *
b100101 $
1%
#370
b101001110011001010110 D
b10010100111001100101011001000011111101111001111 4
b100101001110011001010110010000111111011110011110 9
0%
#375
b1000001000101001110011001010110 #
b1000001000101001110011001010110 3
b101001110011001010110 E
b1111111101 6
b1 >
b1111111100 =
b111001110010010111011110011000111000010000010001 8
b1111100 2
b111101001100010010001011 0
b10000001 1
b111100011100000101010011 /
b111110011101001100010010001011 !
b111110011101001100010010001011 )
b1000000111100011100000101010011 "
b1000000111100011100000101010011 *
b100110 $
1%
#380
b1111111 @
b1111111111 ?
b11001110010010111011110 D
b11100111001001011101111001100011100001000001000 4
b111001110010010111011110011000111000010000010001 9
b1111111101 7
0%
#385
b111111111001110010010111011110 #
b111111111001110010010111011110 3
b11001110010010111011110 E
b1111111 A
b1111111100 6
b1111111100 >
b0 =
b100110101111011011010100011010101001110000101100 8
1.
b10000000 2
b111111000011010111100011 0
1-
b1111100 1
b100111010100101011100100 /
b11000000011111000011010111100011 !
b11000000011111000011010111100011 )
b10111110000111010100101011100100 "
b10111110000111010100101011100100 *
b100111 $
1%
#390
b1111110 @
b1111111110 ?
b110101111011011010100 D
b10011010111101101101010001101010100111000010110 4
b100110101111011011010100011010101001110000101100 9
b1111111100 7
0%
#395
b111111000110101111011011010100 #
b111111000110101111011011010100 3
b110101111011011010100 E
b1111110 A
1:
b1111111111 6
b1 >
b1111111110 =
b111010010111101010110100011111100000110100001011 8
0.
b1111110 2
b111011010001011000000001 0
b10000001 1
b111111000001101100001011 /
b111111011011010001011000000001 !
b111111011011010001011000000001 )
b11000000111111000001101100001011 "
b11000000111111000001101100001011 *
b101000 $
1%
#400
b10000001 @
b1 ?
b11010010111101010110100 D
b11101001011110101011010001111110000011010000101 4
b111010010111101010110100011111100000110100001011 9
b1111111111 7
1;
0%
#405
b11000000111010010111101010110100 #
b11000000111010010111101010110100 3
b11010010111101010110100 E
b10000001 A
1F
0:
b1111111110 >
b1 =
b100111011100110011000100100011111001100100000000 8
1.
b10000001 2
b110101001110010001100000 0
b1111110 1
b101111011100000010011000 /
b11000000110101001110010001100000 !
b11000000110101001110010001100000 )
b10111111001111011100000010011000 "
b10111111001111011100000010011000 *
b101001 $
1%
#410
b111011100110011000100 D
b10011101110011001100010010001111100110010000000 4
b100111011100110011000100100011111001100100000000 9
0;
0%
#415
b1000000100111011100110011000100 #
b1000000100111011100110011000100 3
b111011100110011000100 E
0F
b10 6
b1 >
b111101110100011111101101100100101011001011000000 8
0.
b111110001010111010001000 0
0-
b10000001 1
b111111101000111011011000 /
b1000000111110001010111010001000 !
b1000000111110001010111010001000 )
b1000000111111101000111011011000 "
b1000000111111101000111011011000 *
b101010 $
1%
#420
b10000100 @
b100 ?
b11101110100011111101101 D
b11110111010001111110110110010010101100101100000 4
b111101110100011111101101100100101011001011000000 9
b10 7
0%
#425
b1000010011101110100011111101101 #
b1000010011101110100011111101101 3
b11101110100011111101101 E
b10000100 A
b11 6
b10 =
b100000011101100010110001001001001111011010101101 8
1.
b10000010 2
b100010011000101011010001 0
1-
b111100011010110100011101 /
b11000001000010011000101011010001 !
b11000001000010011000101011010001 )
b11000000111100011010110100011101 "
b11000000111100011010110100011101 *
b101011 $
1%
#430
b10000101 @
b101 ?
b11101100010110001 D
b10000001110110001011000100100100111101101010110 4
b100000011101100010110001001001001111011010101101 9
b11 7
0%
#435
b1000010100000011101100010110001 #
b1000010100000011101100010110001 3
b11101100010110001 E
b10000101 A
1:
b1111111111 6
b1111111110 >
b1 =
b110110001011111000100100011010010101100000110100 8
b10000001 2
b110111001001011010001001 0
0-
b1111110 1
b111110111000100110010100 /
b11000000110111001001011010001001 !
b11000000110111001001011010001001 )
b111111011110111000100110010100 "
b111111011110111000100110010100 *
b101100 $
1%
#440
b10000001 @
b1 ?
b10110001011111000100100 D
b11011000101111100010010001101001010110000011010 4
b110110001011111000100100011010010101100000110100 9
b1111111111 7
1;
0%
#445
b11000000110110001011111000100100 #
b11000000110110001011111000100100 3
b10110001011111000100100 E
b10000001 A
1F
b11 6
b10 >
b100011000011111100001000111000110111100011000000 8
b111101110000101100100100 0
b10000010 1
b100100010101010010110000 /
b11000000111101110000101100100100 !
b11000000111101110000101100100100 )
b1000001000100010101010010110000 "
b1000001000100010101010010110000 *
b101101 $
1%
#450
b10000101 @
b101 ?
b11000011111100001000 D
b10001100001111110000100011100011011110001100000 4
b100011000011111100001000111000110111100011000000 9
b11 7
0%
#455
b11000010100011000011111100001000 #
b11000010100011000011111100001000 3
b11000011111100001000 E
b10000101 A
0:
b1 6
b0 >
b11110000110110110111111110011011010010111110111 8
0.
b101101001000111011000111 0
b10000000 1
b101010101011111101010001 /
b1000000101101001000111011000111 !
b1000000101101001000111011000111 )
b1000000001010101011111101010001 "
b1000000001010101011111101010001 *
b101110 $
1%
#460
b10000010 @
b10 ?
b11100001101101101111111 D
b11110000110110110111111110011011010010111110111 4
05
b11110000110110110111111110011011010010111110111 9
b1 7
0;
0%
#465
b1000001011100001101101101111111 #
b1000001011100001101101101111111 3
b11100001101101101111111 E
b10000010 A
0F
1:
b100 6
b10 >
b10 =
b10010101010010010111110101111110100010011110100 8
1.
b10000010 2
b100010011011011001010111 0
b10000010 1
b100010101100001000101100 /
b11000001000010011011011001010111 !
b11000001000010011011011001010111 )
b1000001000010101100001000101100 "
b1000001000010101100001000101100 *
b101111 $
1%
#470
b10000101 @
b101 ?
b101010100100101111101 D
b10010101010010010111110101111110100010011110100 4
b10010101010010010111110101111110100010011110100 9
b100 7
1;
0%
#475
b11000010100101010100100101111101 #
b11000010100101010100100101111101 3
b101010100100101111101 E
b10000101 A
1F
0:
b11 6
b1 >
b100000001010101101000101100101100011010000110011 8
b100001011001111100111001 0
1-
b10000001 1
b111101101000001011001011 /
b11000001000001011001111100111001 !
b11000001000001011001111100111001 )
b11000000111101101000001011001011 "
b11000000111101101000001011001011 *
b110000 $
1%
#480
b1010101101000101 D
b10000000101010110100010110010110001101000011001 4
15
b100000001010101101000101100101100011010000110011 9
b11 7
0;
0%
#485
b1000010100000001010101101000101 #
b1000010100000001010101101000101 3
b1010101101000101 E
0F
b1 6
b10 >
b1111111111 =
b10110110110111101000100010011101011100010000000 8
b1111111 2
b101001011011111101000000 0
b10000010 1
b100011010011100100001010 /
b10111111101001011011111101000000 !
b10111111101001011011111101000000 )
b11000001000011010011100100001010 "
b11000001000011010011100100001010 *
b110001 $
1%
#490
b10000010 @
b10 ?
b1101101101111010001000 D
b10110110110111101000100010011101011100010000000 4
05
b10110110110111101000100010011101011100010000000 9
b1 7
0%
#495
b1000001001101101101111010001000 #
b1000001001101101101111010001000 3
b1101101101111010001000 E
b10000010 A
b0 6
b1 >
b11111100001100001010111011010011001100010011101 8
0.
b100101110100110111111001 0
0-
b10000001 1
b110101010101100011000101 /
b111111100101110100110111111001 !
b111111100101110100110111111001 )
b1000000110101010101100011000101 "
b1000000110101010101100011000101 *
b110010 $
1%
#500
b10000001 @
b1 ?
b11111000011000010101110 D
b11111100001100001010111011010011001100010011101 4
b11111100001100001010111011010011001100010011101 9
b0 7
0%
#505
b1000000111111000011000010101110 #
b1000000111111000011000010101110 3
b11111000011000010101110 E
b10000001 A
1:
b0 >
b0 =
b100000111111110100101011100100011001011010001111 8
b10000000 2
b110000011111110101011001 0
1-
b10000000 1
b101011100010111000100111 /
b1000000010000011111110101011001 !
b1000000010000011111110101011001 )
b11000000001011100010111000100111 "
b11000000001011100010111000100111 *
b110011 $
1%
#510
b10000010 @
b10 ?
b111111110100101011 D
b10000011111111010010101110010001100101101000111 4
15
b100000111111110100101011100100011001011010001111 9
1;
0%
